<?xml version="1.0" encoding="UTF-8" standalone="no"?>
<!-- Created with Inkscape (http://www.inkscape.org/) -->

<svg
   xmlns:dc="http://purl.org/dc/elements/1.1/"
   xmlns:cc="http://creativecommons.org/ns#"
   xmlns:rdf="http://www.w3.org/1999/02/22-rdf-syntax-ns#"
   xmlns:svg="http://www.w3.org/2000/svg"
   xmlns="http://www.w3.org/2000/svg"
   xmlns:xlink="http://www.w3.org/1999/xlink"
   xmlns:sodipodi="http://sodipodi.sourceforge.net/DTD/sodipodi-0.dtd"
   xmlns:inkscape="http://www.inkscape.org/namespaces/inkscape"
   width="16"
   height="16"
   viewBox="0 0 67.733334 67.733332"
   version="1.1"
   id="svg1125"
   inkscape:version="0.92.3 (2405546, 2018-03-11)"
   sodipodi:docname="com.gitlab.bitseater.meteo.svg">
  <defs
     id="defs1119">
    <radialGradient
       gradientTransform="matrix(0.77744505,0,0,0.22677767,-41.114169,-88.222381)"
       gradientUnits="userSpaceOnUse"
       xlink:href="#b"
       id="y"
       fy="185.297"
       fx="99.189003"
       r="62.769001"
       cy="185.297"
       cx="99.189003" />
    <linearGradient
       id="b">
      <stop
         offset="0"
         id="stop38" />
      <stop
         offset="1"
         stop-opacity="0"
         id="stop40" />
    </linearGradient>
    <radialGradient
       gradientTransform="matrix(0.51829669,0,0,0.16197533,-15.410801,-72.146848)"
       gradientUnits="userSpaceOnUse"
       xlink:href="#b"
       id="z"
       fy="185.297"
       fx="99.189003"
       r="62.769001"
       cy="185.297"
       cx="99.189003" />
    <linearGradient
       gradientTransform="matrix(0,2.0333333,-2.0333335,0,101.06667,-162.09949)"
       gradientUnits="userSpaceOnUse"
       y2="32"
       x2="61.5"
       y1="32"
       x1="2.5"
       id="A"
       xlink:href="#i" />
    <linearGradient
       id="i">
      <stop
         offset="0"
         stop-color="#cd9ef7"
         id="stop12" />
      <stop
         offset="1"
         stop-color="#a56de2"
         id="stop14" />
    </linearGradient>
    <linearGradient
       gradientTransform="matrix(4.8053363,0,0,4.805336,-310.82974,-230.94204)"
       gradientUnits="userSpaceOnUse"
       xlink:href="#a"
       id="B"
       y2="40.495998"
       x2="71.204002"
       y1="15.369"
       x1="71.204002" />
    <linearGradient
       id="a">
      <stop
         offset="0"
         stop-color="#fff"
         id="stop28" />
      <stop
         offset=".424"
         stop-color="#fff"
         stop-opacity=".235"
         id="stop30" />
      <stop
         offset=".821"
         stop-color="#fff"
         stop-opacity=".157"
         id="stop32" />
      <stop
         offset="1"
         stop-color="#fff"
         stop-opacity=".392"
         id="stop34" />
    </linearGradient>
    <linearGradient
       xlink:href="#n"
       id="C"
       gradientUnits="userSpaceOnUse"
       gradientTransform="translate(0,-1)"
       x1="32"
       y1="4"
       x2="32"
       y2="185" />
    <linearGradient
       id="n">
      <stop
         offset="0"
         stop-color="#fff"
         id="stop146" />
      <stop
         offset="1"
         stop-color="#d1ff82"
         id="stop148" />
    </linearGradient>
    <radialGradient
       inkscape:collect="always"
       xlink:href="#linearGradient4272"
       id="radialGradient4278"
       cx="65"
       cy="67"
       fx="65"
       fy="67"
       r="19.5"
       gradientTransform="matrix(1,0,0,2.076923,-28.408868,-238.53694)"
       gradientUnits="userSpaceOnUse" />
    <linearGradient
       inkscape:collect="always"
       id="linearGradient4272">
      <stop
         style="stop-color:#fafafa;stop-opacity:0.5"
         offset="0"
         id="stop4274" />
      <stop
         style="stop-color:#fafafa;stop-opacity:0.18421052"
         offset="1"
         id="stop4276" />
    </linearGradient>
    <filter
       style="color-interpolation-filters:sRGB"
       inkscape:label="Drop Shadow"
       id="filter4738">
      <feFlood
         flood-opacity="0.498039"
         flood-color="rgb(0,0,0)"
         result="flood"
         id="feFlood4740" />
      <feComposite
         in="flood"
         in2="SourceGraphic"
         operator="out"
         result="composite1"
         id="feComposite4742" />
      <feGaussianBlur
         in="composite1"
         stdDeviation="2"
         result="blur"
         id="feGaussianBlur4744" />
      <feOffset
         dx="1"
         dy="1"
         result="offset"
         id="feOffset4746" />
      <feComposite
         in="offset"
         in2="SourceGraphic"
         operator="atop"
         result="composite2"
         id="feComposite4748" />
    </filter>
  </defs>
  <sodipodi:namedview
     id="base"
     pagecolor="#ffffff"
     bordercolor="#666666"
     borderopacity="1.0"
     inkscape:pageopacity="0.0"
     inkscape:pageshadow="2"
     inkscape:zoom="1"
     inkscape:cx="-141.02349"
     inkscape:cy="68.944548"
     inkscape:document-units="mm"
     inkscape:current-layer="g211"
     showgrid="true"
     showguides="true"
     fit-margin-top="0"
     fit-margin-left="0"
     fit-margin-right="0"
     fit-margin-bottom="0"
     units="px"
     inkscape:window-width="1920"
     inkscape:window-height="1017"
     inkscape:window-x="0"
     inkscape:window-y="30"
     inkscape:window-maximized="1"
     inkscape:guide-bbox="true">
    <inkscape:grid
       type="xygrid"
       id="grid1773"
       originx="-90.449703"
       originy="-139.04865"
       dotted="false" />
    <sodipodi:guide
       position="86.821131,-59.673649"
       orientation="0,1"
       id="guide4561"
       inkscape:locked="false" />
  </sodipodi:namedview>
  <metadata
     id="metadata1122">
    <rdf:RDF>
      <cc:Work
         rdf:about="">
        <dc:format>image/svg+xml</dc:format>
        <dc:type
           rdf:resource="http://purl.org/dc/dcmitype/StillImage" />
        <dc:title></dc:title>
        <cc:license
           rdf:resource="http://www.gnu.org/licenses/gpl-3.0.html" />
        <dc:creator>
          <cc:Agent>
            <dc:title>Carlos Suárez</dc:title>
          </cc:Agent>
        </dc:creator>
      </cc:Work>
    </rdf:RDF>
  </metadata>
  <g
     inkscape:label="Capa 1"
     inkscape:groupmode="layer"
     id="layer1"
     transform="translate(-90.449702,-90.218023)">
    <g
       transform="matrix(0.26458333,0,0,0.26458333,98.122619,132.54269)"
       id="g211">
      <path
         style="opacity:0.2;fill:url(#y);stroke-width:2.0333333"
         inkscape:connector-curvature="0"
         d="m 197.33321,72.354787 a 98.427126,28.578303 0 1 1 -196.85425046,0 98.427126,28.578303 0 1 1 196.85425046,0 z"
         id="path193" />
      <path
         style="opacity:0.4;fill:url(#z);stroke-width:2.0333333"
         inkscape:connector-curvature="0"
         d="m 164.52416,80.521187 a 65.618082,20.411905 0 1 1 -131.236158,0 65.618082,20.411905 0 1 1 131.236158,0 z"
         id="path195" />
      <path
         inkscape:connector-curvature="0"
         style="color:#000000;overflow:visible;fill:url(#A);stroke-width:2.0333333;marker:none"
         d="m 219.88942,-29.72516 c 0,-66.46221 -54.22924,-120.45434 -120.983337,-120.45434 -66.754094,0 -120.983337,53.99213 -120.983337,120.45434 0,66.462213 54.229243,120.454337 120.983337,120.454337 66.754097,0 120.983337,-53.992124 120.983337,-120.454337 z"
         overflow="visible"
         id="path197" />
      <path
         inkscape:connector-curvature="0"
         style="color:#000000;overflow:visible;opacity:0.5;fill:none;stroke:#452981;stroke-width:2.0333333;marker:none"
         d="m 98.906083,-150.1795 c -66.754094,0 -120.983337,53.99213 -120.983337,120.45434 0,66.462213 54.229243,120.454337 120.983337,120.454337 66.754097,0 120.983337,-53.992124 120.983337,-120.454337 0,-66.46221 -54.22924,-120.45434 -120.983337,-120.45434 z"
         overflow="visible"
         id="path199" />
      <path
         inkscape:connector-curvature="0"
         style="color:#000000;overflow:visible;opacity:0.5;fill:none;stroke:url(#B);stroke-width:2.0333333;stroke-linecap:round;stroke-linejoin:round;marker:none"
         d="m 215.78829,-29.72516 c 0,64.269535 -52.33042,116.371137 -116.882207,116.371137 -64.551787,0 -116.882208,-52.101602 -116.882208,-116.371137 0,-64.269534 52.330421,-116.37114 116.882208,-116.37114 64.551787,0 116.882207,52.101606 116.882207,116.37114 z"
         overflow="visible"
         id="path201" />
      <path
         style="color:#000000;clip-rule:nonzero;display:inline;overflow:visible;visibility:visible;opacity:1;isolation:auto;mix-blend-mode:normal;color-interpolation:sRGB;color-interpolation-filters:linearRGB;solid-color:#000000;solid-opacity:1;fill:none;fill-opacity:1;fill-rule:evenodd;stroke:#0e141f;stroke-width:5;stroke-linecap:butt;stroke-linejoin:miter;stroke-miterlimit:4;stroke-dasharray:none;stroke-dashoffset:0;stroke-opacity:0.5;color-rendering:auto;image-rendering:auto;shape-rendering:auto;text-rendering:auto;enable-background:accumulate"
         d="m 100.76395,-112.76188 a 22.030452,22.335048 0 0 0 -22.033662,22.334963 22.030452,22.335048 0 0 0 0.412567,4.1988 v 63.799076 A 39.330794,39.183799 0 0 0 60.767859,10.711773 39.330794,39.183799 0 0 0 100.09837,49.896657 39.330794,39.183799 0 0 0 139.42888,10.711773 39.330794,39.183799 0 0 0 122.29161,-21.635408 v -64.107946 a 22.030452,22.335048 0 0 0 0.50208,-4.683563 22.030452,22.335048 0 0 0 -22.02974,-22.334963 z"
         id="path4209-5"
         inkscape:connector-curvature="0" />
      <g
         style="stroke-width:0.49688581;filter:url(#filter4738)"
         id="sketches"
         transform="matrix(1.0598091,-1.0551751,1.0503465,1.0457539,143.64166,-28.589118)" />
      <path
         style="color:#000000;clip-rule:nonzero;display:inline;overflow:visible;visibility:visible;opacity:1;isolation:auto;mix-blend-mode:normal;color-interpolation:sRGB;color-interpolation-filters:linearRGB;solid-color:#000000;solid-opacity:1;fill:#0e141f;fill-opacity:1;fill-rule:evenodd;stroke:#273445;stroke-width:5;stroke-linecap:butt;stroke-linejoin:miter;stroke-miterlimit:4;stroke-dasharray:none;stroke-dashoffset:0;stroke-opacity:1;color-rendering:auto;image-rendering:auto;shape-rendering:auto;text-rendering:auto;enable-background:accumulate"
         d="m 100.76395,-114.77001 a 22.030452,22.335048 0 0 0 -22.033662,22.334963 22.030452,22.335048 0 0 0 0.412567,4.1988 v 63.799076 A 39.330794,39.183799 0 0 0 60.767859,8.703643 39.330794,39.183799 0 0 0 100.09837,47.888527 39.330794,39.183799 0 0 0 139.42888,8.703643 39.330794,39.183799 0 0 0 122.29161,-23.643538 v -64.107927 a 22.030452,22.335048 0 0 0 0.50208,-4.683582 22.030452,22.335048 0 0 0 -22.02974,-22.334963 z"
         id="path4209"
         inkscape:connector-curvature="0" />
      <ellipse
         style="color:#000000;clip-rule:nonzero;display:inline;overflow:visible;visibility:visible;opacity:1;isolation:auto;mix-blend-mode:normal;color-interpolation:sRGB;color-interpolation-filters:linearRGB;solid-color:#000000;solid-opacity:1;fill:#64baff;fill-opacity:1;fill-rule:evenodd;stroke:#64baff;stroke-width:5;stroke-linecap:round;stroke-linejoin:round;stroke-miterlimit:4;stroke-dasharray:none;stroke-dashoffset:0;stroke-opacity:1;color-rendering:auto;image-rendering:auto;shape-rendering:auto;text-rendering:auto;enable-background:accumulate"
         id="path4232"
         cx="100.09837"
         cy="9.7340508"
         rx="15.127119"
         ry="15.060976" />
      <path
         style="fill:none;fill-rule:evenodd;stroke:#fafafa;stroke-width:4.99999952;stroke-linecap:round;stroke-linejoin:round;stroke-miterlimit:4;stroke-dasharray:none;stroke-opacity:1"
         d="m 100.09837,-90.926439 v 32.454576 z"
         id="path4222-7"
         inkscape:connector-curvature="0" />
      <path
         style="fill:none;fill-rule:evenodd;stroke:#64baff;stroke-width:4.99999952;stroke-linecap:round;stroke-linejoin:round;stroke-miterlimit:4;stroke-dasharray:none;stroke-opacity:1"
         d="M 100.09837,-58.397623 V 5.3486401 Z"
         id="path4222"
         inkscape:connector-curvature="0" />
      <path
         style="color:#000000;clip-rule:nonzero;display:inline;overflow:visible;visibility:visible;opacity:1;isolation:auto;mix-blend-mode:normal;color-interpolation:sRGB;color-interpolation-filters:linearRGB;solid-color:#000000;solid-opacity:1;fill:url(#radialGradient4278);fill-opacity:1;fill-rule:evenodd;stroke:none;stroke-width:5;stroke-linecap:butt;stroke-linejoin:miter;stroke-miterlimit:4;stroke-dasharray:none;stroke-dashoffset:0;stroke-opacity:1;color-rendering:auto;image-rendering:auto;shape-rendering:auto;text-rendering:auto;enable-background:accumulate"
         d="m 100.76395,-115.7741 a 22.030452,22.335048 0 0 0 -22.033662,22.334968 22.030452,22.335048 0 0 0 0.412567,4.198799 v 63.799077 A 39.330794,39.183799 0 0 0 60.767859,7.699558 39.330794,39.183799 0 0 0 100.09837,46.884457 39.330794,39.183799 0 0 0 139.42888,7.699558 39.330794,39.183799 0 0 0 122.29161,-24.647623 V -88.75555 a 22.030452,22.335048 0 0 0 0.50208,-4.683582 22.030452,22.335048 0 0 0 -22.02974,-22.334968 z"
         id="path4209-6"
         inkscape:connector-curvature="0" />
    </g>
  </g>
</svg>
